TikiProfilesTester - Display results
…
d

## # A tibble: 492 x 10
##    n     n_errors n_notices n_warnings n_stricts_std test_date  profile_name
##    <chr>    <dbl>     <dbl>      <dbl>         <dbl> <date>     <chr>       
##  1 01           1         4          1             0 NA         Collaborati
##  2 02           0        38          8             1 NA         Company_Int
##  3 03           0        27          8             1 NA         Personal_Bl
##  4 04           0        12          0             1 NA         Small_Organ
##  5 05           0         1          0             0 NA         Collaborati
##  6 06           0         1          0             0 NA         Random_head
##  7 07           0         1          0             0 NA         Multilingua
##  8 08           0         1          0             0 NA         Countries_B
##  9 09           0         2          0             0 NA         Mobile      
## 10 10           0         1          0             0 NA         Slideshow_d
## #  with 482 more rows, and 3 more variables: ver <chr>, rev <chr>, phpv <chr>
…
